Confidence Ellipse
…
Group-based confidence ellipses

For grouping bivariate data, the .group_by argument can be used if the data contains an unique grouping variable (.group_by = NULL by default). When a grouping variable is provided, the function will compute the ellipses separately for each level of the factor. It’s important to note that the grouping variable should be appropriately coded as a factor before passing it to the .group_by argument. If the variable is currently stored as a character or numeric type, you may need to convert it to a factor using functions like as.factor() or forcats::as_factor().

The function includes a distribution argument that allows users to choose between two statistical approaches for ellipse calculation:

“normal” (default): Uses the chi-square distribution quantile

“hotelling”: Uses Hotelling’s T² distribution quantile

ellipse_grp <- confidence_ellipse(glass, x = SiO2, y = Na2O, .group_by = glassType)
ellipse_grph <- confidence_ellipse(glass, x = SiO2, y = Na2O, .group_by = glassType, distribution = "hotelling")

ellipse_grp %>% print()
#> # A tibble: 1,444 × 3
#>        x     y glassType
#>    <dbl> <dbl> <fct>    
#>  1  59.6  14.7 1        
#>  2  59.6  14.7 1        
#>  3  59.6  14.6 1        
#>  4  59.6  14.5 1        
#>  5  59.6  14.5 1        
#>  6  59.6  14.4 1        
#>  7  59.6  14.3 1        
#>  8  59.6  14.3 1        
#>  9  59.7  14.2 1        
#> 10  59.7  14.1 1        
#> # ℹ 1,434 more rows

ellipse_grph %>% print()
#> # A tibble: 1,444 × 3
#>        x     y glassType
#>    <dbl> <dbl> <fct>    
#>  1  59.5  14.7 1        
#>  2  59.5  14.7 1        
#>  3  59.5  14.6 1        
#>  4  59.5  14.5 1        
#>  5  59.5  14.5 1        
#>  6  59.5  14.4 1        
#>  7  59.5  14.3 1        
#>  8  59.5  14.3 1        
#>  9  59.6  14.2 1        
#> 10  59.6  14.1 1        
#> # ℹ 1,434 more rows
…
